{
  "imports": {
    "lume/": "https://deno.land/x/lume@v2.5.2/",
    "lume_markdown_plugins/": "https://deno.land/x/lume_markdown_plugins@v0.7.1/",
    "shikijs_markdown-it": "npm:@shikijs/markdown-it@2.3.2",
    "shikijs_transformers": "npm:@shikijs/transformers@2.3.2",
    "markdown-it-github-alerts": "npm:markdown-it-github-alerts@0.3.0"
  }
}
